{
  "customers": [
    {
      "_id": 555555,
      "docType": "nif",
      "docNum": "11223344E",
      "email": "it@parlem.com",
      "customerId": "11111",
      "givenName": "Enriqueta",
      "familyName1": "Parlem",
      "phone": "668668668",
      "products": [
        {
          "_id": 1111111,
          "productName": "FIBRA 1000 ADAMO",
          "productTypeName": "ftth",
          "numeracioTerminal": 933933933,
          "soldAt": "2019-01-09 14:26:17"
        },
        {
          "_id": 1111112,
          "productName": "FIBRA 1000 ADAMO",
          "productTypeName": "ftth",
          "numeracioTerminal": 933933933,
          "soldAt": "2019-01-09 14:26:17"
        }
      ]
    },
    {
      "_id": 666666,
      "docType": "nif",
      "docNum": "55667788k",
      "email": "miemail@gmail.com",
      "customerId": "11111",
      "givenName": "Octavi",
      "familyName1": "Prats",
      "phone": "665368733",
      "products": [
        {
          "_id": 1111111,
          "productName": "FIBRA 600",
          "productTypeName": "f600",
          "numeracioTerminal": 930101010,
          "soldAt": "2019-01-09 14:26:17"
        },
        {
          "_id": 1111112,
          "productName": "Movil 20GB + il.",
          "productTypeName": "Mo20Il",
          "numeracioTerminal": 672828282,
          "soldAt": "2019-01-09 14:26:17"
        },
        {
          "_id": 1111113,
          "productName": "Movil 2GB",
          "productTypeName": "Mo2",
          "numeracioTerminal": 689898989,
          "soldAt": "2019-01-09 14:26:17"
        }
      ]
    },
    {
      "_id": 777777,
      "docType": "nif",
      "docNum": "66666666k",
      "email": "elseuemail@gmail.com",
      "customerId": "11111",
      "givenName": "El veí",
      "familyName1": "del Primer pis",
      "phone": "654324567",
      "products": [
        {
          "_id": 1111113,
          "productName": "Movil 2GB",
          "productTypeName": "Mo2",
          "numeracioTerminal": 689898989,
          "soldAt": "2019-01-09 14:26:17"
        }
      ]
    }
  ]
}
